浸水涂层金属复合结构的超声波传播有限元模拟与验证/亚克力块在钢块之上1.CSV

Record Length,2.50E+03,,-0.0000048,-0.8
Sample Interval,4.00E-08,,-0.00000476,0
Trigger Point,1.20E+02,,-0.00000472,-0.4
,,,-0.00000468,-0.8
,,,-0.00000464,-0.4
,,,-0.0000046,-0.8
Source,CH1,,-0.00000456,-0.4
Vertical Units,V,,-0.00000452,-0.8
Vertical Scale,1.00E+01,,-0.00000448,-0.4
Vertical Offset,0.00E+00,,-0.00000444,-0.4
Horizontal Units,s,,-0.0000044,-1.2
Horizontal Scale,1.00E-05,,-0.00000436,0
Pt Fmt,Y,,-0.00000432,-0.8
Yzero,0.00E+00,,-0.00000428,-0.8
Probe Atten,1.00E+01,,-0.00000424,-0.4
Model Number,TDS2012C,,-0.0000042,-0.8
Serial Number,C031791,,-0.00000416,-0.4
Firmware Version,FV:v24.26,,-0.00000412,-0.4
,,,-0.00000408,-0.4
,,,-0.00000404,-0.4
,,,-0.000004,-0.4
,,,-0.00000396,-0.4
,,,-0.00000392,-0.4
,,,-0.00000388,-0.4
,,,-0.00000384,-0.4
,,,-0.0000038,0
,,,-0.00000376,-0.4
,,,-0.00000372,0
,,,-0.00000368,-0.4
,,,-0.00000364,-0.4
,,,-0.0000036,-0.4
,,,-0.00000356,-0.8
,,,-0.00000352,-0.4
,,,-0.00000348,-0.4
,,,-0.00000344,0
,,,-0.0000034,0
,,,-0.00000336,-0.4
,,,-0.00000332,-0.4
,,,-0.00000328,-0.4
,,,-0.00000324,-0.4
,,,-0.0000032,0
,,,-0.00000316,-0.8
,,,-0.00000312,0
,,,-0.00000308,-0.4
,,,-0.00000304,-0.4
,,,-0.000003,0
,,,-0.00000296,-0.4
,,,-0.00000292,-0.4
,,,-0.00000288,-0.8
,,,-0.00000284,-0.8
,,,-0.0000028,-0.4
,,,-0.00000276,0
,,,-0.00000272,-0.4
,,,-0.00000268,-0.4
,,,-0.00000264,0
,,,-0.0000026,-0.4
,,,-0.00000256,-0.4
,,,-0.00000252,-0.8
,,,-0.00000248,-0.4
,,,-0.00000244,-0.4
,,,-0.0000024,-0.4
,,,-0.00000236,-0.8
,,,-0.00000232,-0.4
,,,-0.00000228,-0.8
,,,-0.00000224,-1.2
,,,-0.0000022,-0.4
,,,-0.00000216,-0.4
,,,-0.00000212,-0.4
,,,-0.00000208,0
,,,-0.00000204,0
,,,-0.000002,-0.8
,,,-0.00000196,-0.4
,,,-0.00000192,-0.4
,,,-0.00000188,-0.8
,,,-0.00000184,-0.4
,,,-0.0000018,-0.4
,,,-0.00000176,-0.4
,,,-0.00000172,-0.4
,,,-0.00000168,-0.8
,,,-0.00000164,-0.8
,,,-0.0000016,0
,,,-0.00000156,-0.4
,,,-0.00000152,-0.4
,,,-0.00000148,-0.8
,,,-0.00000144,-0.4
,,,-0.0000014,-0.8
,,,-0.00000136,-0.4
,,,-0.00000132,0
,,,-0.00000128,-0.4
,,,-0.00000124,-0.4
,,,-0.0000012,-0.8
,,,-0.00000116,0
,,,-0.00000112,0
,,,-0.00000108,-0.4
,,,-0.00000104,-0.4
,,,-0.000001,-0.8
,,,-0.00000096,-0.4
,,,-0.00000092,-0.4
,,,-0.00000088,-0.4
,,,-0.00000084,-0.4
,,,-0.0000008,0
,,,-0.00000076,-0.4
,,,-0.00000072,-0.4
,,,-0.00000068,-0.4
,,,-0.00000064,-0.8
,,,-0.0000006,-0.4
,,,-0.00000056,-0.4
,,,-0.00000052,0
,,,-0.00000048,-0.4
,,,-0.00000044,-0.8
,,,-0.0000004,-0.4
,,,-0.00000036,-0.4
,,,-0.00000032,-0.8
,,,-0.00000028,-0.4
,,,-0.00000024,0
,,,-0.0000002,-0.4
,,,-0.00000016,0
,,,-0.00000012,-0.4
,,,-0.00000008,-0.4
,,,-0.00000004,-0.8
,,,0,0
,,,0.00000004,-0.4
,,,0.00000008,-0.4
,,,0.00000012,-0.8
,,,0.00000016,0
,,,0.0000002,-0.8
,,,0.00000024,0
,,,0.00000028,-0.4
,,,0.00000032,-16.8
,,,0.00000036,-35.6
,,,0.0000004,-38.4
,,,0.00000044,-38.4
,,,0.00000048,-38.4
,,,0.00000052,-38.8
,,,0.00000056,-38.8
,,,0.0000006,-39.2
,,,0.00000064,-38.8
,,,0.00000068,-38.8
,,,0.00000072,-38.8
,,,0.00000076,-39.2
,,,0.0000008,-39.2
,,,0.00000084,-38.8
,,,0.00000088,-38.4
,,,0.00000092,-38.4
,,,0.00000096,-3.2
,,,0.000001,32.4
,,,0.00000104,39.2
,,,0.00000108,40.8
,,,0.00000112,41.2
,,,0.00000116,40.8
,,,0.0000012,28
,,,0.00000124,-8
,,,0.00000128,-26.4
,,,0.00000132,-34.4
,,,0.00000136,-32
,,,0.0000014,-12.4
,,,0.00000144,3.6
,,,0.00000148,9.2
,,,0.00000152,10.4
,,,0.00000156,10.8
,,,0.0000016,5.2
,,,0.00000164,0
,,,0.00000168,-2.4
,,,0.00000172,-2.8
,,,0.00000176,-3.2
,,,0.0000018,-3.6
,,,0.00000184,-2
,,,0.00000188,-1.6
,,,0.00000192,-2
,,,0.00000196,-2
,,,0.000002,-0.4
,,,0.00000204,0.4
,,,0.00000208,1.2
,,,0.00000212,2.8
,,,0.00000216,3.2
,,,0.0000022,3.2
,,,0.00000224,3.2
,,,0.00000228,2.8
,,,0.00000232,2.8
,,,0.00000236,2
,,,0.0000024,2
,,,0.00000244,1.6
,,,0.00000248,1.2
,,,0.00000252,1.2
,,,0.00000256,0.4
,,,0.0000026,0.8
,,,0.00000264,0.4
,,,0.00000268,-0.4
,,,0.00000272,0
,,,0.00000276,-0.4
,,,0.0000028,-0.4
,,,0.00000284,0.4
,,,0.00000288,1.2
,,,0.00000292,1.2
,,,0.00000296,0.8
,,,0.000003,1.2
,,,0.00000304,1.2
,,,0.00000308,1.6
,,,0.00000312,2
,,,0.00000316,2
,,,0.0000032,2
,,,0.00000324,1.2
,,,0.00000328,1.2
,,,0.00000332,1.2
,,,0.00000336,0.8
,,,0.0000034,0
,,,0.00000344,0
,,,0.00000348,-0.4
,,,0.00000352,-0.4
,,,0.00000356,0
,,,0.0000036,0
,,,0.00000364,0
,,,0.00000368,0.4
,,,0.00000372,0
,,,0.00000376,0.8
,,,0.0000038,0.4
,,,0.00000384,1.2
,,,0.00000388,0.8
,,,0.00000392,0.4
,,,0.00000396,0.8
,,,0.000004,0.4
,,,0.00000404,0.4
,,,0.00000408,0.4
,,,0.00000412,0.4
,,,0.00000416,0
,,,0.0000042,0.8
,,,0.00000424,0.4
,,,0.00000428,0.4
,,,0.00000432,0.4
,,,0.00000436,0.4
,,,0.0000044,1.2
,,,0.00000444,1.6
,,,0.00000448,1.2
,,,0.00000452,2
,,,0.00000456,1.2
,,,0.0000046,2
,,,0.00000464,1.6
,,,0.00000468,2
,,,0.00000472,1.6
,,,0.00000476,1.2
,,,0.0000048,1.6
,,,0.00000484,1.2
,,,0.00000488,1.2
,,,0.00000492,1.2
,,,0.00000496,0.8
,,,0.000005,0.8
,,,0.00000504,0.8
,,,0.00000508,0.8
,,,0.00000512,0.4
,,,0.00000516,0.8
,,,0.0000052,0.8
,,,0.00000524,0.8
,,,0.00000528,0.8
,,,0.00000532,0.8
,,,0.00000536,0.8
,,,0.0000054,0.8
,,,0.00000544,1.2
,,,0.00000548,0.8
,,,0.00000552,1.2
,,,0.00000556,0.8
,,,0.0000056,0.8
,,,0.00000564,1.2
,,,0.00000568,0.8
,,,0.00000572,1.2
,,,0.00000576,0.8
,,,0.0000058,0.8
,,,0.00000584,1.2
,,,0.00000588,1.2
,,,0.00000592,0.8
,,,0.00000596,0.8
,,,0.000006,0.8
,,,0.00000604,0.8
,,,0.00000608,0.4
,,,0.00000612,0.8
,,,0.00000616,1.2
,,,0.0000062,1.2
,,,0.00000624,0.8
,,,0.00000628,1.2
,,,0.00000632,1.2
,,,0.00000636,1.2
,,,0.0000064,1.2
,,,0.00000644,0.8
,,,0.00000648,1.2
,,,0.00000652,1.2
,,,0.00000656,1.2
,,,0.0000066,1.2
,,,0.00000664,1.2
,,,0.00000668,0.8
,,,0.00000672,1.2
,,,0.00000676,0.8
,,,0.0000068,0.8
,,,0.00000684,1.2
,,,0.00000688,1.2
,,,0.00000692,1.2
,,,0.00000696,1.2
,,,0.000007,1.2
,,,0.00000704,1.6
,,,0.00000708,1.2
,,,0.00000712,1.6
,,,0.00000716,1.2
,,,0.0000072,0.8
,,,0.00000724,1.2
,,,0.00000728,1.2
,,,0.00000732,1.2
,,,0.00000736,1.2
,,,0.0000074,1.2
,,,0.00000744,1.2
,,,0.00000748,0.8
,,,0.00000752,1.2
,,,0.00000756,1.2
,,,0.0000076,1.2
,,,0.00000764,1.2
,,,0.00000768,0.8
,,,0.00000772,1.2
,,,0.00000776,1.2
,,,0.0000078,1.6
,,,0.00000784,1.2
,,,0.00000788,1.2
,,,0.00000792,1.6
,,,0.00000796,1.2
,,,0.000008,0.8
,,,0.00000804,1.2
,,,0.00000808,0.8
,,,0.00000812,0.4
,,,0.00000816,1.6
,,,0.0000082,1.2
,,,0.00000824,1.2
,,,0.00000828,0.4
,,,0.00000832,0.8
,,,0.00000836,1.2
,,,0.0000084,1.2
,,,0.00000844,1.2
,,,0.00000848,1.6
,,,0.00000852,0.8
,,,0.00000856,1.2
,,,0.0000086,1.2
,,,0.00000864,1.2
,,,0.00000868,1.2
,,,0.00000872,0.4
,,,0.00000876,1.6
,,,0.0000088,1.2
,,,0.00000884,1.6
,,,0.00000888,1.2
,,,0.00000892,1.2
,,,0.00000896,0.8
,,,0.000009,1.2
,,,0.00000904,1.2
,,,0.00000908,0.8
,,,0.00000912,0.8
,,,0.00000916,1.2
,,,0.0000092,1.2
,,,0.00000924,1.6
,,,0.00000928,1.2
,,,0.00000932,1.2
,,,0.00000936,0.4
,,,0.0000094,1.2
,,,0.00000944,1.2
,,,0.00000948,1.2
,,,0.00000952,1.2
,,,0.00000956,1.2
,,,0.0000096,1.2
,,,0.00000964,1.2
,,,0.00000968,1.2
,,,0.00000972,1.2
,,,0.00000976,1.2
,,,0.0000098,0.8
,,,0.00000984,1.6
,,,0.00000988,0.8
,,,0.00000992,1.2
,,,0.00000996,1.2
,,,0.00001,0.8
,,,0.00001004,1.2
,,,0.00001008,1.2
,,,0.00001012,0.4
,,,0.00001016,1.2
,,,0.0000102,0.8
,,,0.00001024,1.2
,,,0.00001028,1.2
,,,0.00001032,1.2
,,,0.00001036,1.2
,,,0.0000104,0.8
,,,0.00001044,1.2
,,,0.00001048,0.8
,,,0.00001052,0.8
,,,0.00001056,1.2
,,,0.0000106,0.8
,,,0.00001064,0.8
,,,0.00001068,0.8
,,,0.00001072,0.8
,,,0.00001076,0.8
,,,0.0000108,1.2
,,,0.00001084,0.8
,,,0.00001088,0.4
,,,0.00001092,0.4
,,,0.00001096,0.8
,,,0.000011,0.8
,,,0.00001104,0.8
,,,0.00001108,0.8
,,,0.00001112,1.2
,,,0.00001116,0.8
,,,0.0000112,0.8
,,,0.00001124,0.8
,,,0.00001128,1.2
,,,0.00001132,1.2
,,,0.00001136,0.8
,,,0.0000114,1.2
,,,0.00001144,0.8
,,,0.00001148,1.2
,,,0.00001152,1.2
,,,0.00001156,0.8
,,,0.0000116,1.2
,,,0.00001164,0.8
,,,0.00001168,1.2
,,,0.00001172,0.8
,,,0.00001176,1.2
,,,0.0000118,0.8
,,,0.00001184,0.8
,,,0.00001188,1.2
,,,0.00001192,0.8
,,,0.00001196,0.8
,,,0.000012,0.8
,,,0.00001204,0.8
,,,0.00001208,0.8
,,,0.00001212,1.2
,,,0.00001216,1.2
,,,0.0000122,0.4
,,,0.00001224,0.4
,,,0.00001228,0.4
,,,0.00001232,0.8
,,,0.00001236,1.2
,,,0.0000124,0.8
,,,0.00001244,1.2
,,,0.00001248,0.8
,,,0.00001252,0.4
,,,0.00001256,1.2
,,,0.0000126,1.2
,,,0.00001264,0.8
,,,0.00001268,0.4
,,,0.00001272,0.4
,,,0.00001276,0.8
,,,0.0000128,0.8
,,,0.00001284,0.8
,,,0.00001288,0.8
,,,0.00001292,0.8
,,,0.00001296,1.2
,,,0.000013,1.2
,,,0.00001304,0.8
,,,0.00001308,0.4
,,,0.00001312,0.4
,,,0.00001316,0.4
,,,0.0000132,1.2
,,,0.00001324,0.8
,,,0.00001328,0.4
,,,0.00001332,0.4
,,,0.00001336,0.8
,,,0.0000134,1.2
,,,0.00001344,1.2
,,,0.00001348,0.8
,,,0.00001352,0.4
,,,0.00001356,0.8
,,,0.0000136,0.4
,,,0.00001364,0.8
,,,0.00001368,0.4
,,,0.00001372,0.8
,,,0.00001376,1.2
,,,0.0000138,0.8
,,,0.00001384,0.8
,,,0.00001388,0.8
,,,0.00001392,1.2
,,,0.00001396,1.2
,,,0.000014,0.8
,,,0.00001404,0.8
,,,0.00001408,0.4
,,,0.00001412,0.4
,,,0.00001416,0.4
,,,0.0000142,1.2
,,,0.00001424,0.4
,,,0.00001428,0.8
,,,0.00001432,0.4
,,,0.00001436,0.8
,,,0.0000144,0.8
,,,0.00001444,0.8
,,,0.00001448,0.4
,,,0.00001452,1.2
,,,0.00001456,0.8
,,,0.0000146,0.8
,,,0.00001464,0.8
,,,0.00001468,0.8
,,,0.00001472,0.8
,,,0.00001476,0.8
,,,0.0000148,1.2
,,,0.00001484,0.4
,,,0.00001488,0.4
,,,0.00001492,0.4
,,,0.00001496,0.8
,,,0.000015,0.4
,,,0.00001504,0.8
,,,0.00001508,0.8
,,,0.00001512,0.8
,,,0.00001516,0.4
,,,0.0000152,0.4
,,,0.00001524,0.4
,,,0.00001528,0.8
,,,0.00001532,0.8
,,,0.00001536,0.4
,,,0.0000154,0.4
,,,0.00001544,0.8
,,,0.00001548,0.4
,,,0.00001552,1.2
,,,0.00001556,0.4
,,,0.0000156,0
,,,0.00001564,1.2
,,,0.00001568,1.2
,,,0.00001572,0.4
,,,0.00001576,0.8
,,,0.0000158,0.8
,,,0.00001584,1.2
,,,0.00001588,0.8
,,,0.00001592,0.4
,,,0.00001596,0.8
,,,0.000016,0.8
,,,0.00001604,0.8
,,,0.00001608,0.8
,,,0.00001612,0.8
,,,0.00001616,0.8
,,,0.0000162,0.8
,,,0.00001624,0.4
,,,0.00001628,0.8
,,,0.00001632,0.8
,,,0.00001636,1.2
,,,0.0000164,0.8
,,,0.00001644,0.4
,,,0.00001648,0.8
,,,0.00001652,0.4
,,,0.00001656,1.2
,,,0.0000166,0.4
,,,0.00001664,0.4
,,,0.00001668,0.8
,,,0.00001672,0.4
,,,0.00001676,0.4
,,,0.0000168,0.8
,,,0.00001684,0.8
,,,0.00001688,0.4
,,,0.00001692,0.8
,,,0.00001696,0.8
,,,0.000017,0.4
,,,0.00001704,0.4
,,,0.00001708,0.4
,,,0.00001712,0.4
,,,0.00001716,0.8
,,,0.0000172,0.8
,,,0.00001724,0.8
,,,0.00001728,0.4
,,,0.00001732,1.2
,,,0.00001736,1.2
,,,0.0000174,1.2
,,,0.00001744,0.4
,,,0.00001748,0.4
,,,0.00001752,0.4
,,,0.00001756,0.4
,,,0.0000176,0.4
,,,0.00001764,0.8
,,,0.00001768,0.4
,,,0.00001772,0.8
,,,0.00001776,0.4
,,,0.0000178,0.4
,,,0.00001784,0.8
,,,0.00001788,0.8
,,,0.00001792,0.4
,,,0.00001796,0.4
,,,0.000018,0.4
,,,0.00001804,0
,,,0.00001808,0.8
,,,0.00001812,0.8
,,,0.00001816,0.8
,,,0.0000182,0.4
,,,0.00001824,0.8
,,,0.00001828,1.2
,,,0.00001832,0.4
,,,0.00001836,0.8
,,,0.0000184,0.8
,,,0.00001844,0.4
,,,0.00001848,1.2
,,,0.00001852,0.8
,,,0.00001856,0.4
,,,0.0000186,0.8
,,,0.00001864,0.4
,,,0.00001868,0.8
,,,0.00001872,0.8
,,,0.00001876,0.8
,,,0.0000188,0.8
,,,0.00001884,0.4
,,,0.00001888,0.4
,,,0.00001892,0.4
,,,0.00001896,0.8
,,,0.000019,1.2
,,,0.00001904,0.8
,,,0.00001908,0.4
,,,0.00001912,0.8
,,,0.00001916,0
,,,0.0000192,0.4
,,,0.00001924,0.4
,,,0.00001928,0.4
,,,0.00001932,0.4
,,,0.00001936,0
,,,0.0000194,0.8
,,,0.00001944,0.4
,,,0.00001948,0.8
,,,0.00001952,0.8
,,,0.00001956,0.4
,,,0.0000196,0.8
,,,0.00001964,0.4
,,,0.00001968,0.4
,,,0.00001972,0.4
,,,0.00001976,0.4
,,,0.0000198,0.8
,,,0.00001984,0.8
,,,0.00001988,0.8
,,,0.00001992,0.4
,,,0.00001996,0.8
,,,0.00002,0.4
,,,0.00002004,0.4
,,,0.00002008,0.8
,,,0.00002012,0.8
,,,0.00002016,0.4
,,,0.0000202,0
,,,0.00002024,1.2
,,,0.00002028,0.4
,,,0.00002032,0.4
,,,0.00002036,0.8
,,,0.0000204,0.4
,,,0.00002044,0.4
,,,0.00002048,0.4
,,,0.00002052,0.4
,,,0.00002056,0.4
,,,0.0000206,0.4
,,,0.00002064,0.8
,,,0.00002068,0.4
,,,0.00002072,0.4
,,,0.00002076,0.4
,,,0.0000208,0.4
,,,0.00002084,0.4
,,,0.00002088,0.4
,,,0.00002092,0.4
,,,0.00002096,0.4
,,,0.000021,0.4
,,,0.00002104,0
,,,0.00002108,0.4
,,,0.00002112,0.4
,,,0.00002116,0.4
,,,0.0000212,0.4
,,,0.00002124,0.4
,,,0.00002128,0.4
,,,0.00002132,0.4
,,,0.00002136,0.4
,,,0.0000214,0
,,,0.00002144,0.4
,,,0.00002148,0.4
,,,0.00002152,0.8
,,,0.00002156,0.4
,,,0.0000216,0.8
,,,0.00002164,0.8
,,,0.00002168,0.4
,,,0.00002172,0.8
,,,0.00002176,0.4
,,,0.0000218,0.4
,,,0.00002184,0.8
,,,0.00002188,0.4
,,,0.00002192,0.4
,,,0.00002196,0.8
,,,0.000022,0.4
,,,0.00002204,0.4
,,,0.00002208,0.4
,,,0.00002212,0.4
,,,0.00002216,0
,,,0.0000222,0.4
,,,0.00002224,0.4
,,,0.00002228,0.8
,,,0.00002232,0.8
,,,0.00002236,0
,,,0.0000224,0.4
,,,0.00002244,0.8
,,,0.00002248,0
,,,0.00002252,0.4
,,,0.00002256,0.8
,,,0.0000226,0.4
,,,0.00002264,0.4
,,,0.00002268,0
,,,0.00002272,0.4
,,,0.00002276,0.4
,,,0.0000228,0.4
,,,0.00002284,0.4
,,,0.00002288,0
,,,0.00002292,0.4
,,,0.00002296,0.8
,,,0.000023,0.4
,,,0.00002304,0
,,,0.00002308,0.4
,,,0.00002312,0
,,,0.00002316,0.4
,,,0.0000232,0.4
,,,0.00002324,0.4
,,,0.00002328,0.4
,,,0.00002332,0.4
,,,0.00002336,0
,,,0.0000234,0.4
,,,0.00002344,0.4
,,,0.00002348,0.4
,,,0.00002352,0.4
,,,0.00002356,0.4
,,,0.0000236,0.4
,,,0.00002364,0.4
,,,0.00002368,0.4
,,,0.00002372,0
,,,0.00002376,0.8
,,,0.0000238,0.8
,,,0.00002384,0.4
,,,0.00002388,0.8
,,,0.00002392,0
,,,0.00002396,0
,,,0.000024,0.8
,,,0.00002404,0.4
,,,0.00002408,0
,,,0.00002412,0.4
,,,0.00002416,0
,,,0.0000242,0
,,,0.00002424,0.4
,,,0.00002428,0.4
,,,0.00002432,0.4
,,,0.00002436,0.4
,,,0.0000244,0
,,,0.00002444,0.4
,,,0.00002448,0.8
,,,0.00002452,0.8
,,,0.00002456,0.8
,,,0.0000246,0.4
,,,0.00002464,0
,,,0.00002468,0.8
,,,0.00002472,0.8
,,,0.00002476,0.8
,,,0.0000248,0.4
,,,0.00002484,0.4
,,,0.00002488,0.4
,,,0.00002492,0
,,,0.00002496,0.4
,,,0.000025,0
,,,0.00002504,0.4
,,,0.00002508,0.4
,,,0.00002512,1.2
,,,0.00002516,0.4
,,,0.0000252,0.4
,,,0.00002524,0.4
,,,0.00002528,0.8
,,,0.00002532,0.8
,,,0.00002536,0
,,,0.0000254,0.4
,,,0.00002544,0
,,,0.00002548,0
,,,0.00002552,0
,,,0.00002556,0.8
,,,0.0000256,0.4
,,,0.00002564,0
,,,0.00002568,0.8
,,,0.00002572,0
,,,0.00002576,0
,,,0.0000258,0.4
,,,0.00002584,0
,,,0.00002588,0.8
,,,0.00002592,0.4
,,,0.00002596,0.4
,,,0.000026,0.4
,,,0.00002604,0.4
,,,0.00002608,0.4
,,,0.00002612,0.4
,,,0.00002616,0.4
,,,0.0000262,0
,,,0.00002624,0
,,,0.00002628,0.8
,,,0.00002632,0.4
,,,0.00002636,0.4
,,,0.0000264,0.4
,,,0.00002644,0.4
,,,0.00002648,0.8
,,,0.00002652,0.4
,,,0.00002656,0.4
,,,0.0000266,0
,,,0.00002664,0.4
,,,0.00002668,0.4
,,,0.00002672,0.4
,,,0.00002676,0.4
,,,0.0000268,0
,,,0.00002684,0.4
,,,0.00002688,0
,,,0.00002692,0.8
,,,0.00002696,0.4
,,,0.000027,0.4
,,,0.00002704,0.4
,,,0.00002708,0
,,,0.00002712,0.4
,,,0.00002716,0
,,,0.0000272,0.4
,,,0.00002724,0.4
,,,0.00002728,0
,,,0.00002732,0
,,,0.00002736,0.4
,,,0.0000274,0.4
,,,0.00002744,0.4
,,,0.00002748,0
,,,0.00002752,0.4
,,,0.00002756,0.4
,,,0.0000276,0
,,,0.00002764,0.4
,,,0.00002768,0
,,,0.00002772,0.4
,,,0.00002776,0
,,,0.0000278,0.4
,,,0.00002784,0.4
,,,0.00002788,0.4
,,,0.00002792,0
,,,0.00002796,0.4
,,,0.000028,0.4
,,,0.00002804,0.4
,,,0.00002808,0.4
,,,0.00002812,-0.4
,,,0.00002816,0.4
,,,0.0000282,0.4
,,,0.00002824,0.4
,,,0.00002828,0
,,,0.00002832,0.4
,,,0.00002836,0
,,,0.0000284,0.4
,,,0.00002844,0.8
,,,0.00002848,0.4
,,,0.00002852,0
,,,0.00002856,0.4
,,,0.0000286,0
,,,0.00002864,0.4
,,,0.00002868,0.4
,,,0.00002872,0.4
,,,0.00002876,0
,,,0.0000288,0
,,,0.00002884,0.4
,,,0.00002888,0
,,,0.00002892,0.4
,,,0.00002896,0
,,,0.000029,0.4
,,,0.00002904,0.4
,,,0.00002908,0
,,,0.00002912,0.4
,,,0.00002916,0
,,,0.0000292,0
,,,0.00002924,0.4
,,,0.00002928,0
,,,0.00002932,0.4
,,,0.00002936,0
,,,0.0000294,0.4
,,,0.00002944,0.4
,,,0.00002948,0.4
,,,0.00002952,0
,,,0.00002956,0.4
,,,0.0000296,0.4
,,,0.00002964,0.4
,,,0.00002968,0
,,,0.00002972,0
,,,0.00002976,0.4
,,,0.0000298,0
,,,0.00002984,0.4
,,,0.00002988,0.4
,,,0.00002992,-0.4
,,,0.00002996,0.4
,,,0.00003,0.4
,,,0.00003004,0.4
,,,0.00003008,0.4
,,,0.00003012,0.4
,,,0.00003016,0
,,,0.0000302,0
,,,0.00003024,0.4
,,,0.00003028,0.4
,,,0.00003032,0
,,,0.00003036,0.4
,,,0.0000304,0.4
,,,0.00003044,0
,,,0.00003048,0
,,,0.00003052,0.4
,,,0.00003056,0.4
,,,0.0000306,0.4
,,,0.00003064,0
,,,0.00003068,0
,,,0.00003072,0
,,,0.00003076,0
,,,0.0000308,0.4
,,,0.00003084,0.4
,,,0.00003088,0.4
,,,0.00003092,0
,,,0.00003096,0
,,,0.000031,0.4
,,,0.00003104,0.4
,,,0.00003108,0.4
,,,0.00003112,0.4
,,,0.00003116,0.4
,,,0.0000312,0
,,,0.00003124,0
,,,0.00003128,0.4
,,,0.00003132,0.4
,,,0.00003136,0.4
,,,0.0000314,0
,,,0.00003144,0
,,,0.00003148,0.8
,,,0.00003152,0.4
,,,0.00003156,0.4
,,,0.0000316,0.4
,,,0.00003164,0
,,,0.00003168,1.2
,,,0.00003172,0.4
,,,0.00003176,0
,,,0.0000318,0
,,,0.00003184,0
,,,0.00003188,-0.4
,,,0.00003192,0
,,,0.00003196,0
,,,0.000032,0.4
,,,0.00003204,0
,,,0.00003208,-0.4
,,,0.00003212,0
,,,0.00003216,0
,,,0.0000322,0.4
,,,0.00003224,0
,,,0.00003228,0
,,,0.00003232,0
,,,0.00003236,0
,,,0.0000324,0.4
,,,0.00003244,0.4
,,,0.00003248,-0.4
,,,0.00003252,0.8
,,,0.00003256,0.4
,,,0.0000326,0.4
,,,0.00003264,0.4
,,,0.00003268,0
,,,0.00003272,0
,,,0.00003276,0
,,,0.0000328,0
,,,0.00003284,0
,,,0.00003288,0
,,,0.00003292,-0.4
,,,0.00003296,0
,,,0.000033,0.8
,,,0.00003304,0
,,,0.00003308,0.4
,,,0.00003312,0
,,,0.00003316,0.4
,,,0.0000332,0.8
,,,0.00003324,0.8
,,,0.00003328,0
,,,0.00003332,0
,,,0.00003336,0.8
,,,0.0000334,0
,,,0.00003344,0.4
,,,0.00003348,0
,,,0.00003352,0
,,,0.00003356,0.4
,,,0.0000336,0.4
,,,0.00003364,-0.4
,,,0.00003368,0.4
,,,0.00003372,0.4
,,,0.00003376,0.4
,,,0.0000338,0.4
,,,0.00003384,0
,,,0.00003388,0
,,,0.00003392,0.4
,,,0.00003396,0
,,,0.000034,0.4
,,,0.00003404,0.4
,,,0.00003408,0.4
,,,0.00003412,0
,,,0.00003416,0
,,,0.0000342,0
,,,0.00003424,0.4
,,,0.00003428,0.4
,,,0.00003432,0.4
,,,0.00003436,0
,,,0.0000344,0.4
,,,0.00003444,-0.4
,,,0.00003448,0.4
,,,0.00003452,0
,,,0.00003456,0.4
,,,0.0000346,0
,,,0.00003464,0
,,,0.00003468,0
,,,0.00003472,-0.4
,,,0.00003476,0
,,,0.0000348,0
,,,0.00003484,0.8
,,,0.00003488,0.4
,,,0.00003492,0.4
,,,0.00003496,-0.4
,,,0.000035,-0.4
,,,0.00003504,0
,,,0.00003508,0
,,,0.00003512,0.4
,,,0.00003516,-0.4
,,,0.0000352,-0.4
,,,0.00003524,0
,,,0.00003528,0
,,,0.00003532,-0.4
,,,0.00003536,0
,,,0.0000354,0
,,,0.00003544,0.4
,,,0.00003548,0
,,,0.00003552,0.4
,,,0.00003556,0.4
,,,0.0000356,0
,,,0.00003564,0.4
,,,0.00003568,0
,,,0.00003572,0
,,,0.00003576,0.4
,,,0.0000358,0.4
,,,0.00003584,-0.4
,,,0.00003588,0
,,,0.00003592,0
,,,0.00003596,0.4
,,,0.000036,0.4
,,,0.00003604,-0.4
,,,0.00003608,0
,,,0.00003612,0.4
,,,0.00003616,0
,,,0.0000362,0
,,,0.00003624,0
,,,0.00003628,0
,,,0.00003632,0
,,,0.00003636,0.4
,,,0.0000364,0
,,,0.00003644,-0.4
,,,0.00003648,0.4
,,,0.00003652,0
,,,0.00003656,0
,,,0.0000366,0.4
,,,0.00003664,0.4
,,,0.00003668,0.4
,,,0.00003672,-0.4
,,,0.00003676,-0.4
,,,0.0000368,0
,,,0.00003684,0
,,,0.00003688,0
,,,0.00003692,0.4
,,,0.00003696,0
,,,0.000037,0.4
,,,0.00003704,0
,,,0.00003708,0
,,,0.00003712,0.4
,,,0.00003716,-0.4
,,,0.0000372,0.4
,,,0.00003724,0
,,,0.00003728,0
,,,0.00003732,0.4
,,,0.00003736,-0.4
,,,0.0000374,0
,,,0.00003744,0
,,,0.00003748,0
,,,0.00003752,0
,,,0.00003756,0.4
,,,0.0000376,0
,,,0.00003764,0.4
,,,0.00003768,0
,,,0.00003772,-0.4
,,,0.00003776,0
,,,0.0000378,0
,,,0.00003784,0
,,,0.00003788,0
,,,0.00003792,-0.4
,,,0.00003796,0
,,,0.000038,0
,,,0.00003804,0.4
,,,0.00003808,0.4
,,,0.00003812,0
,,,0.00003816,0
,,,0.0000382,0
,,,0.00003824,0
,,,0.00003828,0.4
,,,0.00003832,-0.4
,,,0.00003836,0
,,,0.0000384,0
,,,0.00003844,-0.4
,,,0.00003848,0
,,,0.00003852,0.4
,,,0.00003856,0
,,,0.0000386,-0.4
,,,0.00003864,-0.4
,,,0.00003868,-0.4
,,,0.00003872,-0.8
,,,0.00003876,-2.4
,,,0.0000388,-5.2
,,,0.00003884,-8.8
,,,0.00003888,-10.8
,,,0.00003892,-11.6
,,,0.00003896,-7.6
,,,0.000039,1.6
,,,0.00003904,12.4
,,,0.00003908,24
,,,0.00003912,31.6
,,,0.00003916,31.6
,,,0.0000392,24.8
,,,0.00003924,10.4
,,,0.00003928,-8.8
,,,0.00003932,-25.6
,,,0.00003936,-34.8
,,,0.0000394,-35.2
,,,0.00003944,-27.2
,,,0.00003948,-12.8
,,,0.00003952,3.6
,,,0.00003956,14.8
,,,0.0000396,20
,,,0.00003964,19.2
,,,0.00003968,12.8
,,,0.00003972,4.4
,,,0.00003976,-2.8
