浸水涂层金属复合结构的超声波传播有限元模拟与验证/防护涂层钢板脉冲回波法1.CSV

Record Length,2.500000e+03,,  -0.000002660000,  -0.40000,
Sample Interval,1.000000e-08,,  -0.000002650000,  -0.60000,
Trigger Point,2.660000000000e+02,,  -0.000002640000,  -0.20000,
,,,  -0.000002630000,  -0.40000,
,,,  -0.000002620000,  -0.20000,
,,,  -0.000002610000,   0.00000,
Source,CH1,,  -0.000002600000,  -0.40000,
Vertical Units,V,,  -0.000002590000,  -0.40000,
Vertical Scale,5.000000e+00,,  -0.000002580000,  -0.20000,
Vertical Offset,0.000000e+00,,  -0.000002570000,   0.00000,
Horizontal Units,s,,  -0.000002560000,  -0.20000,
Horizontal Scale,2.500000e-06,,  -0.000002550000,  -0.20000,
Pt Fmt,Y,,  -0.000002540000,  -0.20000,
Yzero,0.000000e+00,,  -0.000002530000,  -0.40000,
Probe Atten,1.000000e+01,,  -0.000002520000,   0.00000,
Model Number,TDS2012C,,  -0.000002510000,  -0.40000,
Serial Number,C031791,,  -0.000002500000,  -0.20000,
Firmware Version,FV:v24.26,,  -0.000002490000,  -0.40000,
,,,-00.000002480000,  -0.60000,
,,,-00.000002470000,  -0.20000,
,,,-00.000002460000,  -0.20000,
,,,-00.000002450000,  -0.20000,
,,,-00.000002440000,  -0.20000,
,,,-00.000002430000,  -0.40000,
,,,-00.000002420000,  -0.20000,
,,,-00.000002410000,  -0.40000,
,,,-00.000002400000,   0.00000,
,,,-00.000002390000,  -0.20000,
,,,-00.000002380000,  -0.20000,
,,,-00.000002370000,  -0.20000,
,,,-00.000002360000,   0.00000,
,,,-00.000002350000,  -0.20000,
,,,-00.000002340000,   0.00000,
,,,-00.000002330000,  -0.20000,
,,,-00.000002320000,  -0.20000,
,,,-00.000002310000,  -0.40000,
,,,-00.000002300000,   0.00000,
,,,-00.000002290000,  -0.20000,
,,,-00.000002280000,  -0.20000,
,,,-00.000002270000,  -0.40000,
,,,-00.000002260000,  -0.40000,
,,,-00.000002250000,  -0.20000,
,,,-00.000002240000,  -0.20000,
,,,-00.000002230000,  -0.20000,
,,,-00.000002220000,  -0.20000,
,,,-00.000002210000,  -0.40000,
,,,-00.000002200000,  -0.40000,
,,,-00.000002190000,  -0.20000,
,,,-00.000002180000,  -0.40000,
,,,-00.000002170000,  -0.20000,
,,,-00.000002160000,   0.00000,
,,,-00.000002150000,  -0.40000,
,,,-00.000002140000,  -0.20000,
,,,-00.000002130000,  -0.40000,
,,,-00.000002120000,  -0.20000,
,,,-00.000002110000,   0.00000,
,,,-00.000002100000,  -0.40000,
,,,-00.000002090000,  -0.20000,
,,,-00.000002080000,  -0.40000,
,,,-00.000002070000,  -0.20000,
,,,-00.000002060000,  -0.40000,
,,,-00.000002050000,   0.00000,
,,,-00.000002040000,  -0.20000,
,,,-00.000002030000,  -0.60000,
,,,-00.000002020000,  -0.20000,
,,,-00.000002010000,  -0.20000,
,,,-00.000002000000,   0.20000,
,,,-00.000001990000,  -0.40000,
,,,-00.000001980000,  -0.40000,
,,,-00.000001970000,  -0.40000,
,,,-00.000001960000,   0.00000,
,,,-00.000001950000,  -0.20000,
,,,-00.000001940000,  -0.40000,
,,,-00.000001930000,  -0.20000,
,,,-00.000001920000,  -0.40000,
,,,-00.000001910000,   0.00000,
,,,-00.000001900000,  -0.40000,
,,,-00.000001890000,  -0.20000,
,,,-00.000001880000,  -0.40000,
,,,-00.000001870000,   0.00000,
,,,-00.000001860000,  -0.20000,
,,,-00.000001850000,  -0.20000,
,,,-00.000001840000,  -0.40000,
,,,-00.000001830000,  -0.20000,
,,,-00.000001820000,  -0.60000,
,,,-00.000001810000,   0.00000,
,,,-00.000001800000,  -0.20000,
,,,-00.000001790000,  -0.60000,
,,,-00.000001780000,  -0.40000,
,,,-00.000001770000,  -0.20000,
,,,-00.000001760000,  -0.20000,
,,,-00.000001750000,   0.00000,
,,,-00.000001740000,  -0.20000,
,,,-00.000001730000,  -0.60000,
,,,-00.000001720000,  -0.20000,
,,,-00.000001710000,   0.00000,
,,,-00.000001700000,   0.00000,
,,,-00.000001690000,  -0.20000,
,,,-00.000001680000,   0.00000,
,,,-00.000001670000,  -0.40000,
,,,-00.000001660000,  -0.60000,
,,,-00.000001650000,  -0.20000,
,,,-00.000001640000,  -0.20000,
,,,-00.000001630000,  -0.20000,
,,,-00.000001620000,  -0.40000,
,,,-00.000001610000,  -0.40000,
,,,-00.000001600000,  -0.40000,
,,,-00.000001590000,  -0.40000,
,,,-00.000001580000,  -0.20000,
,,,-00.000001570000,  -0.40000,
,,,-00.000001560000,  -0.40000,
,,,-00.000001550000,  -0.40000,
,,,-00.000001540000,  -0.20000,
,,,-00.000001530000,  -0.20000,
,,,-00.000001520000,  -0.40000,
,,,-00.000001510000,  -0.20000,
,,,-00.000001500000,  -0.40000,
,,,-00.000001490000,  -0.40000,
,,,-00.000001480000,  -0.20000,
,,,-00.000001470000,  -0.40000,
,,,-00.000001460000,  -0.40000,
,,,-00.000001450000,   0.00000,
,,,-00.000001440000,  -0.40000,
,,,-00.000001430000,  -0.20000,
,,,-00.000001420000,  -0.20000,
,,,-00.000001410000,  -0.20000,
,,,-00.000001400000,  -0.40000,
,,,-00.000001390000,  -0.20000,
,,,-00.000001380000,  -0.40000,
,,,-00.000001370000,  -0.20000,
,,,-00.000001360000,  -0.20000,
,,,-00.000001350000,  -0.20000,
,,,-00.000001340000,  -0.20000,
,,,-00.000001330000,  -0.20000,
,,,-00.000001320000,  -0.20000,
,,,-00.000001310000,   0.00000,
,,,-00.000001300000,   0.00000,
,,,-00.000001290000,  -0.40000,
,,,-00.000001280000,  -0.60000,
,,,-00.000001270000,  -0.60000,
,,,-00.000001260000,  -0.40000,
,,,-00.000001250000,  -0.20000,
,,,-00.000001240000,  -0.40000,
,,,-00.000001230000,  -0.20000,
,,,-00.000001220000,   0.00000,
,,,-00.000001210000,  -0.20000,
,,,-00.000001200000,  -0.20000,
,,,-00.000001190000,  -0.40000,
,,,-00.000001180000,  -0.40000,
,,,-00.000001170000,  -0.20000,
,,,-00.000001160000,  -0.60000,
,,,-00.000001150000,  -0.20000,
,,,-00.000001140000,  -0.40000,
,,,-00.000001130000,  -0.40000,
,,,-00.000001120000,  -0.20000,
,,,-00.000001110000,  -0.20000,
,,,-00.000001100000,  -0.20000,
,,,-00.000001090000,  -0.20000,
,,,-00.000001080000,  -0.20000,
,,,-00.000001070000,  -0.20000,
,,,-00.000001060000,  -0.20000,
,,,-00.000001050000,   0.00000,
,,,-00.000001040000,  -0.20000,
,,,-00.000001030000,  -0.40000,
,,,-00.000001020000,  -0.40000,
,,,-00.000001010000,   0.20000,
,,,-00.000001000000,   0.00000,
,,,-00.000000990000,  -0.20000,
,,,-00.000000980000,  -0.60000,
,,,-00.000000970000,  -0.40000,
,,,-00.000000960000,  -0.40000,
,,,-00.000000950000,  -0.20000,
,,,-00.000000940000,   0.00000,
,,,-00.000000930000,  -0.20000,
,,,-00.000000920000,  -0.20000,
,,,-00.000000910000,  -0.20000,
,,,-00.000000900000,  -0.40000,
,,,-00.000000890000,  -0.40000,
,,,-00.000000880000,  -0.20000,
,,,-00.000000870000,  -0.60000,
,,,-00.000000860000,  -0.40000,
,,,-00.000000850000,  -0.20000,
,,,-00.000000840000,  -0.40000,
,,,-00.000000830000,  -0.20000,
,,,-00.000000820000,  -0.40000,
,,,-00.000000810000,   0.00000,
,,,-00.000000800000,  -0.40000,
,,,-00.000000790000,  -0.40000,
,,,-00.000000780000,   0.00000,
,,,-00.000000770000,  -0.20000,
,,,-00.000000760000,  -0.40000,
,,,-00.000000750000,   0.00000,
,,,-00.000000740000,  -0.20000,
,,,-00.000000730000,  -0.20000,
,,,-00.000000720000,   0.00000,
,,,-00.000000710000,   0.00000,
,,,-00.000000700000,  -0.20000,
,,,-00.000000690000,  -0.20000,
,,,-00.000000680000,  -0.40000,
,,,-00.000000670000,  -0.60000,
,,,-00.000000660000,   0.00000,
,,,-00.000000650000,  -0.40000,
,,,-00.000000640000,  -0.40000,
,,,-00.000000630000,   0.00000,
,,,-00.000000620000,  -0.40000,
,,,-00.000000610000,  -0.40000,
,,,-00.000000600000,  -0.40000,
,,,-00.000000590000,  -0.20000,
,,,-00.000000580000,  -0.20000,
,,,-00.000000570000,  -0.40000,
,,,-00.000000560000,  -0.20000,
,,,-00.000000550000,  -0.20000,
,,,-00.000000540000,  -0.20000,
,,,-00.000000530000,  -0.40000,
,,,-00.000000520000,  -0.40000,
,,,-00.000000510000,  -0.40000,
,,,-00.000000500000,  -0.60000,
,,,-00.000000490000,  -0.40000,
,,,-00.000000480000,  -0.40000,
,,,-00.000000470000,  -0.20000,
,,,-00.000000460000,  -0.20000,
,,,-00.000000450000,   0.00000,
,,,-00.000000440000,  -0.20000,
,,,-00.000000430000,  -0.40000,
,,,-00.000000420000,  -0.20000,
,,,-00.000000410000,   0.00000,
,,,-00.000000400000,  -0.20000,
,,,-00.000000390000,  -0.20000,
,,,-00.000000380000,  -0.40000,
,,,-00.000000370000,  -0.20000,
,,,-00.000000360000,  -0.20000,
,,,-00.000000350000,  -0.20000,
,,,-00.000000340000,  -0.40000,
,,,-00.000000330000,  -0.20000,
,,,-00.000000320000,  -0.20000,
,,,-00.000000310000,   0.00000,
,,,-00.000000300000,  -0.40000,
,,,-00.000000290000,  -0.20000,
,,,-00.000000280000,  -0.20000,
,,,-00.000000270000,  -0.40000,
,,,-00.000000260000,  -0.20000,
,,,-00.000000250000,  -0.40000,
,,,-00.000000240000,  -0.20000,
,,,-00.000000230000,  -0.20000,
,,,-00.000000220000,  -0.40000,
,,,-00.000000210000,  -0.60000,
,,,-00.000000200000,  -0.40000,
,,,-00.000000190000,  -0.40000,
,,,-00.000000180000,  -0.20000,
,,,-00.000000170000,  -0.60000,
,,,-00.000000160000,  -0.20000,
,,,-00.000000150000,  -0.60000,
,,,-00.000000140000,  -0.20000,
,,,-00.000000130000,  -0.40000,
,,,-00.000000120000,  -0.40000,
,,,-00.000000110000,  -0.20000,
,,,-00.000000100000,  -0.40000,
,,,-00.000000090000,  -0.20000,
,,,-00.000000080000,  -0.40000,
,,,-00.000000070000,   0.00000,
,,,-00.000000060000,  -1.80000,
,,,-00.000000050000,  -6.80000,
,,,-00.000000040000, -11.60000,
,,,-00.000000030000, -15.60000,
,,,-00.000000020000, -18.20000,
,,,-00.000000010000, -18.00000,
,,,-00.000000000000, -16.00000,
,,,00.000000010000, -12.60000,
,,,00.000000020000,  -8.60000,
,,,00.000000030000,  -4.20000,
,,,00.000000040000,  -0.40000,
,,,00.000000050000,   2.80000,
,,,00.000000060000,   5.20000,
,,,00.000000070000,   6.60000,
,,,00.000000080000,   7.40000,
,,,00.000000090000,   7.80000,
,,,00.000000100000,   8.00000,
,,,00.000000110000,   7.80000,
,,,00.000000120000,   7.40000,
,,,00.000000130000,   7.00000,
,,,00.000000140000,   6.20000,
,,,00.000000150000,   5.60000,
,,,00.000000160000,   5.00000,
,,,00.000000170000,   4.40000,
,,,00.000000180000,   3.80000,
,,,00.000000190000,   3.60000,
,,,00.000000200000,   3.00000,
,,,00.000000210000,   2.60000,
,,,00.000000220000,   2.00000,
,,,00.000000230000,   1.80000,
,,,00.000000240000,   1.60000,
,,,00.000000250000,   1.20000,
,,,00.000000260000,   1.40000,
,,,00.000000270000,   0.60000,
,,,00.000000280000,   1.00000,
,,,00.000000290000,   0.40000,
,,,00.000000300000,   0.60000,
,,,00.000000310000,   0.00000,
,,,00.000000320000,   0.20000,
,,,00.000000330000,   0.20000,
,,,00.000000340000,   0.20000,
,,,00.000000350000,   0.00000,
,,,00.000000360000,   0.00000,
,,,00.000000370000,  -0.20000,
,,,00.000000380000,  -0.20000,
,,,00.000000390000,  -0.20000,
,,,00.000000400000,   0.20000,
,,,00.000000410000,  -0.60000,
,,,00.000000420000,  -1.00000,
,,,00.000000430000,  -4.60000,
,,,00.000000440000,  -2.20000,
,,,00.000000450000,   8.60000,
,,,00.000000460000,  18.60000,
,,,00.000000470000,  25.40000,
,,,00.000000480000,  25.40000,
,,,00.000000490000,  25.40000,
,,,00.000000500000,  22.80000,
,,,00.000000510000,  12.40000,
,,,00.000000520000,   3.80000,
,,,00.000000530000,  -4.60000,
,,,00.000000540000, -10.00000,
,,,00.000000550000, -13.00000,
,,,00.000000560000, -13.60000,
,,,00.000000570000, -11.20000,
,,,00.000000580000,  -6.40000,
,,,00.000000590000,  -1.40000,
,,,00.000000600000,   3.00000,
,,,00.000000610000,   5.60000,
,,,00.000000620000,   5.60000,
,,,00.000000630000,   4.60000,
,,,00.000000640000,   2.60000,
,,,00.000000650000,   1.60000,
,,,00.000000660000,  -1.60000,
,,,00.000000670000,  -6.00000,
,,,00.000000680000, -10.60000,
,,,00.000000690000, -14.60000,
,,,00.000000700000, -17.00000,
,,,00.000000710000, -17.80000,
,,,00.000000720000, -17.20000,
,,,00.000000730000, -15.60000,
,,,00.000000740000, -13.60000,
,,,00.000000750000, -11.00000,
,,,00.000000760000,  -8.80000,
,,,00.000000770000,  -7.60000,
,,,00.000000780000,  -7.40000,
,,,00.000000790000,  -9.00000,
,,,00.000000800000, -11.40000,
,,,00.000000810000, -14.60000,
,,,00.000000820000, -17.00000,
,,,00.000000830000, -17.60000,
,,,00.000000840000, -16.60000,
,,,00.000000850000, -13.00000,
,,,00.000000860000,  -8.20000,
,,,00.000000870000,  -2.20000,
,,,00.000000880000,   3.60000,
,,,00.000000890000,   8.80000,
,,,00.000000900000,  12.60000,
,,,00.000000910000,  15.00000,
,,,00.000000920000,  16.00000,
,,,00.000000930000,  15.60000,
,,,00.000000940000,  14.00000,
,,,00.000000950000,  12.20000,
,,,00.000000960000,  10.00000,
,,,00.000000970000,   8.00000,
,,,00.000000980000,   6.00000,
,,,00.000000990000,   5.20000,
,,,00.000001000000,   5.20000,
,,,00.000001010000,   6.20000,
,,,00.000001020000,   7.20000,
,,,00.000001030000,   8.20000,
,,,00.000001040000,   8.60000,
,,,00.000001050000,   8.00000,
,,,00.000001060000,   6.00000,
,,,00.000001070000,   3.60000,
,,,00.000001080000,   1.00000,
,,,00.000001090000,  -1.60000,
,,,00.000001100000,  -4.20000,
,,,00.000001110000,  -6.20000,
,,,00.000001120000,  -7.00000,
,,,00.000001130000,  -7.20000,
,,,00.000001140000,  -7.40000,
,,,00.000001150000,  -6.80000,
,,,00.000001160000,  -5.60000,
,,,00.000001170000,  -4.40000,
,,,00.000001180000,  -3.60000,
,,,00.000001190000,  -2.80000,
,,,00.000001200000,  -2.00000,
,,,00.000001210000,  -1.80000,
,,,00.000001220000,  -1.80000,
,,,00.000001230000,  -2.20000,
,,,00.000001240000,  -2.80000,
,,,00.000001250000,  -2.80000,
,,,00.000001260000,  -2.60000,
,,,00.000001270000,  -2.20000,
,,,00.000001280000,  -2.00000,
,,,00.000001290000,  -1.00000,
,,,00.000001300000,  -0.40000,
,,,00.000001310000,   0.80000,
,,,00.000001320000,   1.40000,
,,,00.000001330000,   1.60000,
,,,00.000001340000,   2.00000,
,,,00.000001350000,   2.00000,
,,,00.000001360000,   1.80000,
,,,00.000001370000,   1.20000,
,,,00.000001380000,   0.80000,
,,,00.000001390000,   0.80000,
,,,00.000001400000,   0.20000,
,,,00.000001410000,  -0.20000,
,,,00.000001420000,  -0.20000,
,,,00.000001430000,  -0.40000,
,,,00.000001440000,   0.00000,
,,,00.000001450000,   0.00000,
,,,00.000001460000,   0.00000,
,,,00.000001470000,   0.20000,
,,,00.000001480000,   0.40000,
,,,00.000001490000,   0.60000,
,,,00.000001500000,   0.60000,
,,,00.000001510000,   0.00000,
,,,00.000001520000,   0.00000,
,,,00.000001530000,  -0.40000,
,,,00.000001540000,  -0.20000,
,,,00.000001550000,  -0.60000,
,,,00.000001560000,  -0.60000,
,,,00.000001570000,  -0.60000,
,,,00.000001580000,  -0.60000,
,,,00.000001590000,  -0.40000,
,,,00.000001600000,  -0.40000,
,,,00.000001610000,   0.00000,
,,,00.000001620000,   0.00000,
,,,00.000001630000,   0.40000,
,,,00.000001640000,   0.40000,
,,,00.000001650000,   0.40000,
,,,00.000001660000,   0.00000,
,,,00.000001670000,  -0.20000,
,,,00.000001680000,  -0.40000,
,,,00.000001690000,  -0.60000,
,,,00.000001700000,  -0.60000,
,,,00.000001710000,  -0.40000,
,,,00.000001720000,  -0.60000,
,,,00.000001730000,  -0.40000,
,,,00.000001740000,  -0.40000,
,,,00.000001750000,  -0.40000,
,,,00.000001760000,  -0.20000,
,,,00.000001770000,  -0.20000,
,,,00.000001780000,  -0.20000,
,,,00.000001790000,  -0.20000,
,,,00.000001800000,  -0.20000,
,,,00.000001810000,  -0.40000,
,,,00.000001820000,  -0.40000,
,,,00.000001830000,  -0.80000,
,,,00.000001840000,  -0.60000,
,,,00.000001850000,  -0.60000,
,,,00.000001860000,  -0.80000,
,,,00.000001870000,  -0.40000,
,,,00.000001880000,  -0.40000,
,,,00.000001890000,  -0.40000,
,,,00.000001900000,  -0.20000,
,,,00.000001910000,  -0.20000,
,,,00.000001920000,   0.00000,
,,,00.000001930000,  -0.20000,
,,,00.000001940000,   0.20000,
,,,00.000001950000,   0.00000,
,,,00.000001960000,   0.20000,
,,,00.000001970000,  -0.40000,
,,,00.000001980000,  -0.20000,
,,,00.000001990000,   0.00000,
,,,00.000002000000,   0.00000,
,,,00.000002010000,  -0.20000,
,,,00.000002020000,  -0.20000,
,,,00.000002030000,  -0.40000,
,,,00.000002040000,  -0.40000,
,,,00.000002050000,  -0.60000,
,,,00.000002060000,  -1.00000,
,,,00.000002070000,  -1.20000,
,,,00.000002080000,  -1.40000,
,,,00.000002090000,  -1.20000,
,,,00.000002100000,  -1.60000,
,,,00.000002110000,  -1.80000,
,,,00.000002120000,  -2.20000,
,,,00.000002130000,  -2.20000,
,,,00.000002140000,  -2.40000,
,,,00.000002150000,  -2.40000,
,,,00.000002160000,  -2.60000,
,,,00.000002170000,  -3.00000,
,,,00.000002180000,  -3.20000,
,,,00.000002190000,  -3.00000,
,,,00.000002200000,  -2.80000,
,,,00.000002210000,  -2.80000,
,,,00.000002220000,  -2.80000,
,,,00.000002230000,  -2.80000,
,,,00.000002240000,  -2.00000,
,,,00.000002250000,  -1.60000,
,,,00.000002260000,  -1.00000,
,,,00.000002270000,  -0.20000,
,,,00.000002280000,   0.60000,
,,,00.000002290000,   1.40000,
,,,00.000002300000,   2.40000,
,,,00.000002310000,   3.80000,
,,,00.000002320000,   4.60000,
,,,00.000002330000,   5.60000,
,,,00.000002340000,   6.40000,
,,,00.000002350000,   7.40000,
,,,00.000002360000,   8.40000,
,,,00.000002370000,   8.80000,
,,,00.000002380000,   9.60000,
,,,00.000002390000,  10.00000,
,,,00.000002400000,  10.60000,
,,,00.000002410000,  10.80000,
,,,00.000002420000,  10.80000,
,,,00.000002430000,  10.40000,
,,,00.000002440000,   9.40000,
,,,00.000002450000,   8.60000,
,,,00.000002460000,   7.20000,
,,,00.000002470000,   5.20000,
,,,00.000002480000,   3.40000,
,,,00.000002490000,   1.20000,
,,,00.000002500000,  -0.80000,
,,,00.000002510000,  -3.20000,
,,,00.000002520000,  -4.80000,
,,,00.000002530000,  -6.20000,
,,,00.000002540000,  -8.00000,
,,,00.000002550000,  -9.80000,
,,,00.000002560000, -11.60000,
,,,00.000002570000, -13.80000,
,,,00.000002580000, -15.20000,
,,,00.000002590000, -16.60000,
,,,00.000002600000, -17.60000,
,,,00.000002610000, -18.80000,
,,,00.000002620000, -19.00000,
,,,00.000002630000, -18.60000,
,,,00.000002640000, -18.20000,
,,,00.000002650000, -17.20000,
,,,00.000002660000, -15.40000,
,,,00.000002670000, -13.40000,
,,,00.000002680000, -11.40000,
,,,00.000002690000,  -8.80000,
,,,00.000002700000,  -6.40000,
,,,00.000002710000,  -3.80000,
,,,00.000002720000,  -1.20000,
,,,00.000002730000,   1.40000,
,,,00.000002740000,   4.00000,
,,,00.000002750000,   6.20000,
,,,00.000002760000,   8.40000,
,,,00.000002770000,  10.20000,
,,,00.000002780000,  11.80000,
,,,00.000002790000,  13.80000,
,,,00.000002800000,  14.80000,
,,,00.000002810000,  16.00000,
,,,00.000002820000,  16.00000,
,,,00.000002830000,  16.60000,
,,,00.000002840000,  16.60000,
,,,00.000002850000,  16.00000,
,,,00.000002860000,  14.80000,
,,,00.000002870000,  13.20000,
,,,00.000002880000,  12.20000,
,,,00.000002890000,  10.40000,
,,,00.000002900000,   8.60000,
,,,00.000002910000,   6.80000,
,,,00.000002920000,   4.80000,
,,,00.000002930000,   3.40000,
,,,00.000002940000,   1.40000,
,,,00.000002950000,  -0.80000,
,,,00.000002960000,  -1.80000,
,,,00.000002970000,  -3.20000,
,,,00.000002980000,  -5.00000,
,,,00.000002990000,  -6.00000,
,,,00.000003000000,  -7.20000,
,,,00.000003010000,  -8.20000,
,,,00.000003020000,  -9.00000,
,,,00.000003030000,  -9.40000,
,,,00.000003040000,  -9.40000,
,,,00.000003050000,  -9.20000,
,,,00.000003060000,  -9.20000,
,,,00.000003070000,  -8.60000,
,,,00.000003080000,  -8.00000,
,,,00.000003090000,  -7.20000,
,,,00.000003100000,  -6.40000,
,,,00.000003110000,  -5.60000,
,,,00.000003120000,  -4.80000,
,,,00.000003130000,  -4.00000,
,,,00.000003140000,  -2.80000,
,,,00.000003150000,  -2.00000,
,,,00.000003160000,  -1.20000,
,,,00.000003170000,  -0.60000,
,,,00.000003180000,   0.40000,
,,,00.000003190000,   1.00000,
,,,00.000003200000,   1.80000,
,,,00.000003210000,   2.40000,
,,,00.000003220000,   2.40000,
,,,00.000003230000,   2.80000,
,,,00.000003240000,   3.00000,
,,,00.000003250000,   3.00000,
,,,00.000003260000,   3.00000,
,,,00.000003270000,   2.80000,
,,,00.000003280000,   2.60000,
,,,00.000003290000,   2.40000,
,,,00.000003300000,   2.20000,
,,,00.000003310000,   2.00000,
,,,00.000003320000,   1.80000,
,,,00.000003330000,   1.40000,
,,,00.000003340000,   1.20000,
,,,00.000003350000,   1.00000,
,,,00.000003360000,   0.60000,
,,,00.000003370000,   0.40000,
,,,00.000003380000,   0.20000,
,,,00.000003390000,  -0.20000,
,,,00.000003400000,   0.00000,
,,,00.000003410000,  -0.20000,
,,,00.000003420000,  -0.20000,
,,,00.000003430000,  -0.80000,
,,,00.000003440000,  -0.80000,
,,,00.000003450000,  -0.80000,
,,,00.000003460000,  -1.00000,
,,,00.000003470000,  -0.80000,
,,,00.000003480000,  -1.00000,
,,,00.000003490000,  -0.80000,
,,,00.000003500000,  -0.80000,
,,,00.000003510000,  -0.60000,
,,,00.000003520000,  -0.60000,
,,,00.000003530000,  -0.40000,
,,,00.000003540000,  -0.60000,
,,,00.000003550000,  -0.20000,
,,,00.000003560000,  -0.60000,
,,,00.000003570000,  -0.20000,
,,,00.000003580000,  -0.20000,
